{
  "request": {
    "method": "GET",
    "url": "/api/users?page=2"
  },
  "response": {
    "status": 200,
    "headers": {
      "Content-Type": "application/json"
    },
    "jsonBody": {
      "page": 2,
      "per_page": 3,
      "total": 6,
      "total_pages": 2,
      "data": [
        {
          "id": 4,
          "email": "eve.holt@reqres.in",
          "first_name": "Eve",
          "last_name": "Holt",
          "avatar": "https://reqres.in/img/faces/4-image.jpg"
        },
        {
          "id": 5,
          "email": "charles.morris@reqres.in",
          "first_name": "Charles",
          "last_name": "Morris",
          "avatar": "https://reqres.in/img/faces/5-image.jpg"
        },
        {
          "id": 6,
          "email": "tracey.ramos@reqres.in",
          "first_name": "Tracey",
          "last_name": "Ramos",
          "avatar": "https://reqres.in/img/faces/6-image.jpg"
        }
      ],
      "support": {
        "url": "https://reqres.in#support-heading",
        "text": "To keep ReqRes free, contributions towards server costs are appreciated!"
      }
    }
  }
}

